TestFile/fifo_waveform.vcd
$date
	Tue Nov 11 21:10:40 2025
$end
$version
	Icarus Verilog
$end
$timescale
	1ps
$end
$scope module tb_fifo $end
$var wire 1 ! full $end
$var wire 1 " empty $end
$var wire 8 # dout [7:0] $end
$var reg 1 $ clk $end
$var reg 8 % din [7:0] $end
$var reg 1 & rd_en $end
$var reg 1 ' rst $end
$var reg 1 ( wr_en $end
$scope module uut $end
$var wire 1 $ clk $end
$var wire 8 ) din [7:0] $end
$var wire 8 * dout [7:0] $end
$var wire 1 & rd_en $end
$var wire 1 ' rst $end
$var wire 1 ( wr_en $end
$var wire 1 ! full $end
$var wire 1 " empty $end
$var parameter 32 + data_size $end
$var parameter 32 , depth $end
$var reg 5 - count [4:0] $end
$var reg 4 . rd_ptr [3:0] $end
$var reg 4 / wr_ptr [3:0] $end
$upscope $end
$upscope $end
$enddefinitions $end
$comment Show the parameter values. $end
$dumpall
b10000 ,
b1000 +
$end
#0
$dumpvars
b0 /
b0 .
b0 -
bx *
b0 )
0(
1'
0&
b0 %
0$
bx #
1"
0!
$end
#5000
1$
#10000
0$
#15000
1$
0'
#20000
b100100 %
b100100 )
1(
0$
#25000
0"
b1 -
b1 /
b100100 #
b100100 *
1$
#30000
b10000001 %
b10000001 )
0$
#35000
b10 -
b10 /
1$
#40000
b1001 %
b1001 )
0$
#45000
b11 -
b11 /
1$
#50000
b1100011 %
b1100011 )
0$
#55000
b100 -
b100 /
1$
#60000
b1101 %
b1101 )
0$
#65000
b101 -
b101 /
1$
#70000
b10001101 %
b10001101 )
0$
#75000
b110 -
b110 /
1$
#80000
b1100101 %
b1100101 )
0$
#85000
b111 -
b111 /
1$
#90000
b10010 %
b10010 )
0$
#95000
b1000 -
b1000 /
1$
#100000
b1 %
b1 )
0$
#105000
b1001 -
b1001 /
1$
#110000
b1101 %
b1101 )
0$
#115000
b1010 -
b1010 /
1$
#120000
b1110110 %
b1110110 )
0$
#125000
b1011 -
b1011 /
1$
#130000
b111101 %
b111101 )
0$
#135000
b1100 -
b1100 /
1$
#140000
b11101101 %
b11101101 )
0$
#145000
b1101 -
b1101 /
1$
#150000
b10001100 %
b10001100 )
0$
#155000
b1110 -
b1110 /
1$
#160000
b11111001 %
b11111001 )
0$
#165000
b1111 -
b1111 /
1$
#170000
b11000110 %
b11000110 )
0$
#175000
1!
b10000 -
b0 /
1$
#180000
0(
b11000101 %
b11000101 )
0$
#185000
1$
#190000
1&
0$
#195000
0!
b10000001 #
b10000001 *
b1111 -
b1 .
1$
#200000
0$
#205000
b1001 #
b1001 *
b1110 -
b10 .
1$
#210000
0$
#215000
b1100011 #
b1100011 *
b1101 -
b11 .
1$
#220000
0$
#225000
b1101 #
b1101 *
b1100 -
b100 .
1$
#230000
0$
#235000
b10001101 #
b10001101 *
b1011 -
b101 .
1$
#240000
0$
#245000
b1100101 #
b1100101 *
b1010 -
b110 .
1$
#250000
0$
#255000
b10010 #
b10010 *
b1001 -
b111 .
1$
#260000
0$
#265000
b1 #
b1 *
b1000 -
b1000 .
1$
#270000
0$
#275000
b1101 #
b1101 *
b111 -
b1001 .
1$
#280000
0$
#285000
b1110110 #
b1110110 *
b110 -
b1010 .
1$
#290000
0$
#295000
b111101 #
b111101 *
b101 -
b1011 .
1$
#300000
0$
#305000
b11101101 #
b11101101 *
b100 -
b1100 .
1$
#310000
0$
#315000
b10001100 #
b10001100 *
b11 -
b1101 .
1$
#320000
0$
#325000
b11111001 #
b11111001 *
b10 -
b1110 .
1$
#330000
0$
#335000
b11000110 #
b11000110 *
b1 -
b1111 .
1$
#340000
0$
#345000
1"
b100100 #
b100100 *
b0 -
b0 .
1$
#350000
0&
0$
